%!PS-Adobe-2.0 EPSF-2.0
%%Title: full.dia
%%Creator: Dia v0.90
%%CreationDate: Wed Sep 18 23:08:59 2002
%%For: a user
%%Magnification: 1.0000
%%Orientation: Portrait
%%BoundingBox: 0 0 593 603
%%Pages: 1
%%EndComments
%%BeginProlog
/cp {closepath} bind def
/c {curveto} bind def
/f {fill} bind def
/a {arc} bind def
/ef {eofill} bind def
/ex {exch} bind def
/gr {grestore} bind def
/gs {gsave} bind def
/sa {save} bind def
/rs {restore} bind def
/l {lineto} bind def
/m {moveto} bind def
/rm {rmoveto} bind def
/n {newpath} bind def
/s {stroke} bind def
/sh {show} bind def
/slc {setlinecap} bind def
/slj {setlinejoin} bind def
/slw {setlinewidth} bind def
/srgb {setrgbcolor} bind def
/rot {rotate} bind def
/sc {scale} bind def
/sd {setdash} bind def
/ff {findfont} bind def
/sf {setfont} bind def
/scf {scalefont} bind def
/sw {stringwidth pop} bind def
/tr {translate} bind def

/ellipsedict 8 dict def
ellipsedict /mtrx matrix put
/ellipse
{ ellipsedict begin
   /endangle exch def
   /startangle exch def
   /yrad exch def
   /xrad exch def
   /y exch def
   /x exch def   /savematrix mtrx currentmatrix def
   x y tr xrad yrad sc
   0 0 1 startangle endangle arc
   savematrix setmatrix
   end
} def

/mergeprocs {
dup length
3 -1 roll
dup
length
dup
5 1 roll
3 -1 roll
add
array cvx
dup
3 -1 roll
0 exch
putinterval
dup
4 2 roll
putinterval
} bind def
%%EndProlog

%%BeginSetup
%%EndSetup
18.929630 -18.929630 scale
3.088930 -25.685320 translate

0.600000 0.700000 1.000000 srgb
n 15.412200 7.958400 m 15.412200 25.603800 l 18.370170 25.603800 l 18.370170 7.958400 l f
0.100000 slw
[] 0 sd
[] 0 sd
0 slj
n 15.412200 7.958400 m 15.412200 25.603800 l 18.370170 25.603800 l 18.370170 7.958400 l cp s
0.550000 0.550000 0.550000 srgb
n 18.436400 6.543420 m 18.436400 25.635320 l 28.150000 25.635320 l 28.150000 6.543420 l f
0.100000 slw
[] 0 sd
[] 0 sd
0 slj
0.550000 0.549999 0.549999 srgb
n 18.436400 6.543420 m 18.436400 25.635320 l 28.150000 25.635320 l 28.150000 6.543420 l cp s
1.000000 1.000000 1.000000 srgb
n 17.641400 10.299700 m 17.641400 23.310500 l 28.150000 23.310500 l 28.150000 10.299700 l f
0.100000 slw
[] 0 sd
[] 0 sd
0 slj
0.000000 0.000000 0.000000 srgb
n 17.641400 10.299700 m 17.641400 23.310500 l 28.150000 23.310500 l 28.150000 10.299700 l cp s
0.100000 slw
[] 0 sd
[] 0 sd
0 slc
1.000000 1.000000 1.000000 srgb
n 28.150000 10.299700 m 28.150000 23.310500 l s
1.000000 0.292411 0.438227 srgb
n -3.038930 6.714130 m -3.038930 25.593930 l 15.345870 25.593930 l 15.345870 6.714130 l f
0.100000 slw
[] 0 sd
[] 0 sd
0 slj
1.000000 0.290000 0.440000 srgb
n -3.038930 6.714130 m -3.038930 25.593930 l 15.345870 25.593930 l 15.345870 6.714130 l cp s
0.100000 slw
[] 0 sd
1.000000 1.000000 1.000000 srgb
n -1.527210 3.427210 m -1.527210 5.227210 l 1.426390 5.227210 l 1.426390 3.427210 l f
0.000000 0.000000 0.000000 srgb
n -1.527210 3.427210 m -1.527210 5.227210 l 1.426390 5.227210 l 1.426390 3.427210 l cp s
 [ /xi /xi /xi /xi /xi /xi /xi /xi /xi /xi /xi /xi /xi /xi /xi /xi
 /xi /xi /xi /xi /xi /xi /xi /xi /xi /xi /xi /xi /xi /xi /xi /xi
 /c /l /i /e /n /t /B /r /xi /xi /o /w /s /U /k /d
 /v /b /A /m /p /a /u /h /g /space /period /x /P /I /F /asterisk
 /T /braceleft /braceright /f /xi /xi /xi /xi /xi /xi /xi /xi /xi /xi /xi /xi
 /xi /xi /xi /xi /xi /xi /xi /xi /xi /xi /xi /xi /xi /xi /xi /xi
 /xi /xi /xi /xi /xi /xi /xi /xi /xi /xi /xi /xi /xi /xi /xi /xi
 /xi /xi /xi /xi /xi /xi /xi /xi /xi /xi /xi /xi /xi /xi /xi /xi
 /xi /xi /xi /xi /xi /xi /xi /xi /xi /xi /xi /xi /xi /xi /xi /xi
 /xi /xi /xi /xi /xi /xi /xi /xi /xi /xi /xi /xi /xi /xi /xi /xi
 /xi /xi /xi /xi /xi /xi /xi /xi /xi /xi /xi /xi /xi /xi /xi /xi
 /xi /xi /xi /xi /xi /xi /xi /xi /xi /xi /xi /xi /xi /xi /xi /xi
 /xi /xi /xi /xi /xi /xi /xi /xi /xi /xi /xi /xi /xi /xi /xi /xi
 /xi /xi /xi /xi /xi /xi /xi /xi /xi /xi /xi /xi /xi /xi /xi /xi
 /xi /xi /xi /xi /xi /xi /xi /xi /xi /xi /xi /xi /xi /xi /xi /xi
 /xi /xi /xi /xi /xi /xi /xi /xi /xi /xi /xi /xi /xi /xi /xi /xi
] /e0 exch def
/Helvetica_e0 undefinefont
/Helvetica_e0
  /Helvetica findfont
  dup length dict begin
  {1 index /FID ne {def} {pop pop} ifelse} forall
  /Encoding e0 def
  currentdict end
definefont pop
/Helvetica_e0 ff 0.800000 scf sf
( !"#$%) sw
2 div -0.050410 ex sub 4.567210 m ( !"#$%)
 gs 1 -1 sc sh gr
0.050000 slw
n -1.027210 4.727210 m 0.926390 4.727210 l s
0.100000 slw
[1.000000] 0 sd
[0.400000] 0 sd
0 slj
0 slc
n 4.334190 2.887870 m 4.334190 4.341740 l 1.490790 4.341740 l 1.490790 4.327210 l s
0 slj
1.000000 1.000000 1.000000 srgb
n 4.734190 3.687870 m 4.334190 2.887870 l 3.934190 3.687870 l f
0.100000 slw
[] 0 sd
0 slj
0.000000 0.000000 0.000000 srgb
n 4.734190 3.687870 m 4.334190 2.887870 l 3.934190 3.687870 l cp s
0.100000 slw
[] 0 sd
1.000000 1.000000 1.000000 srgb
n 1.919240 1.487870 m 1.919240 2.887870 l 6.776240 2.887870 l 6.776240 1.487870 l f
0.000000 0.000000 0.000000 srgb
n 1.919240 1.487870 m 1.919240 2.887870 l 6.776240 2.887870 l 6.776240 1.487870 l cp s
/Helvetica-Bold_e0 undefinefont
/Helvetica-Bold_e0
  /Helvetica-Bold findfont
  dup length dict begin
  {1 index /FID ne {def} {pop pop} ifelse} forall
  /Encoding e0 def
  currentdict end
definefont pop
/Helvetica-Bold_e0 ff 1.000000 scf sf
(&'*+,#') sw
2 div 4.347740 ex sub 2.487870 m (&'*+,#')
 gs 1 -1 sc sh gr
0.100000 slw
[] 0 sd
1.000000 1.000000 1.000000 srgb
n -0.088030 -2.483450 0.300000 0.300000 0 360 ellipse f
0.000000 0.000000 0.000000 srgb
n -0.088030 -2.483450 0.300000 0.300000 0 360 ellipse cp s
n -1.288030 -1.883450 m 1.111970 -1.883450 l s
n -0.088030 -2.183450 m -0.088030 -0.683450 l s
n -0.088030 -0.683450 m -1.288030 0.616550 l s
n -0.088030 -0.683450 m 1.111970 0.616550 l s
/Helvetica_e0 ff 0.800000 scf sf
(-,#') sw
2 div -0.088030 ex sub 1.856550 m (-,#')
 gs 1 -1 sc sh gr
0.100000 slw
0 slc
[] 0 sd
n -0.018210 3.427210 m -0.088030 1.216550 l s
0 slj
n -0.293339 2.635501 m -0.018210 3.427210 l 0.206411 2.619717 l f
/Helvetica_e0 ff 0.800000 scf sf
( !" .) sw
2 div 1.118320 ex sub 2.867250 m ( !" .)
 gs 1 -1 sc sh gr
0.100000 slw
0 slc
[] 0 sd
n 6.707510 -1.075530 m 1.808420 -1.127970 l s
0 slj
n 5.904880 -0.834107 m 6.707510 -1.075530 l 5.910232 -1.334078 l f
/Helvetica_e0 ff 0.800000 scf sf
("$%#$/) sw
2 div 4.217140 ex sub -0.304695 m ("$%#$/)
 gs 1 -1 sc sh gr
0.100000 slw
0 slc
[] 0 sd
n 1.725580 -2.374420 m 6.724670 -2.371970 l s
0 slj
n 2.525702 -2.624028 m 1.725580 -2.374420 l 2.525457 -2.124028 l f
/Helvetica_e0 ff 0.800000 scf sf
(0","1!#) sw
2 div 4.246430 ex sub -3.075410 m (0","1!#)
 gs 1 -1 sc sh gr
0.100000 slw
[] 0 sd
1.000000 1.000000 1.000000 srgb
n -2.625760 10.254500 m -2.625760 23.114500 l 16.074040 23.114500 l 16.074040 10.254500 l f
0.000000 0.000000 0.000000 srgb
n -2.625760 10.254500 m -2.625760 23.114500 l 16.074040 23.114500 l 16.074040 10.254500 l cp s
1.000000 1.000000 1.000000 srgb
n -2.625760 8.454500 m -2.625760 10.254500 l 1.173440 10.254500 l 1.173440 8.454500 l f
0.000000 0.000000 0.000000 srgb
n -2.625760 8.454500 m -2.625760 10.254500 l 1.173440 10.254500 l 1.173440 8.454500 l cp s
-2.525760 9.949190 m /Courier_e0 undefinefont
/Courier_e0
  /Courier findfont
  dup length dict begin
  {1 index /FID ne {def} {pop pop} ifelse} forall
  /Encoding e0 def
  currentdict end
definefont pop
/Courier_e0 ff 0.800000 scf sf
(2,.#3*,)
 gs 1 -1 sc sh gr
0.100000 slw
[] 0 sd
1.000000 1.000000 1.000000 srgb
n -0.101020 11.279300 m -0.101020 13.879300 l 3.829380 13.879300 l 3.829380 11.279300 l f
0.000000 0.000000 0.000000 srgb
n -0.101020 11.279300 m -0.101020 13.879300 l 3.829380 13.879300 l 3.829380 11.279300 l cp s
/Helvetica_e0 ff 0.800000 scf sf
(4'*%* *!) sw
2 div 1.864180 ex sub 12.419300 m (4'*%* *!)
 gs 1 -1 sc sh gr
(5/54%*') sw
2 div 1.864180 ex sub 13.219300 m (5/54%*')
 gs 1 -1 sc sh gr
0.050000 slw
n 0.398980 12.579300 m 3.329380 12.579300 l s
n 0.438580 13.379300 m 3.289780 13.379300 l s
0.100000 slw
[] 0 sd
[] 0 sd
0 slc
0 slj
0 slc
0 slj
[] 0 sd
1.000000 1.000000 1.000000 srgb
n 9.836350 11.336200 m 17.282860 11.336200 l 15.793558 13.743310 l 11.325652 13.743310 l 9.836350 11.336200 l f
0.000000 0.000000 0.000000 srgb
n 9.836350 11.336200 m 17.282860 11.336200 l 15.793558 13.743310 l 11.325652 13.743310 l 9.836350 11.336200 l s
/Courier_e0 ff 0.800000 scf sf
(0"'%65!) sw
2 div 13.559605 ex sub 12.334445 m (0"'%65!)
 gs 1 -1 sc sh gr
(35 7"$#) sw
2 div 13.559605 ex sub 13.134445 m (35 7"$#)
 gs 1 -1 sc sh gr
0.100000 slw
[] 0 sd
1.000000 1.000000 1.000000 srgb
n 0.054258 16.132500 m 0.054258 18.732500 l 3.905458 18.732500 l 3.905458 16.132500 l f
0.000000 0.000000 0.000000 srgb
n 0.054258 16.132500 m 0.054258 18.732500 l 3.905458 18.732500 l 3.905458 16.132500 l cp s
/Helvetica_e0 ff 0.800000 scf sf
(,%*'58#) sw
2 div 1.979858 ex sub 17.272500 m (,%*'58#)
 gs 1 -1 sc sh gr
(5/54%*') sw
2 div 1.979858 ex sub 18.072500 m (5/54%*')
 gs 1 -1 sc sh gr
0.050000 slw
n 0.593858 17.432500 m 3.365858 17.432500 l s
n 0.554258 18.232500 m 3.405458 18.232500 l s
0.100000 slw
[] 0 sd
1.000000 1.000000 1.000000 srgb
n 10.486500 16.187500 m 10.486500 18.787500 l 14.337700 18.787500 l 14.337700 16.187500 l f
0.000000 0.000000 0.000000 srgb
n 10.486500 16.187500 m 10.486500 18.787500 l 14.337700 18.787500 l 14.337700 16.187500 l cp s
/Helvetica_e0 ff 0.800000 scf sf
(,%*'58#) sw
2 div 12.412100 ex sub 17.327500 m (,%*'58#)
 gs 1 -1 sc sh gr
(5/54%*') sw
2 div 12.412100 ex sub 18.127500 m (5/54%*')
 gs 1 -1 sc sh gr
0.050000 slw
n 11.026100 17.487500 m 13.798100 17.487500 l s
n 10.986500 18.287500 m 13.837700 18.287500 l s
0.100000 slw
[] 0 sd
1.000000 1.000000 1.000000 srgb
n 14.671400 19.368300 m 14.671400 21.968300 l 19.525800 21.968300 l 19.525800 19.368300 l f
0.000000 0.000000 0.000000 srgb
n 14.671400 19.368300 m 14.671400 21.968300 l 19.525800 21.968300 l 19.525800 19.368300 l cp s
/Helvetica_e0 ff 0.800000 scf sf
(/",%'"16%#/) sw
2 div 17.098600 ex sub 20.508300 m (/",%'"16%#/)
 gs 1 -1 sc sh gr
(,%*'58#) sw
2 div 17.098600 ex sub 21.308300 m (,%*'58#)
 gs 1 -1 sc sh gr
0.050000 slw
n 15.171400 20.668300 m 19.025800 20.668300 l s
n 15.712600 21.468300 m 18.484600 21.468300 l s
0.100000 slw
[] 0 sd
1.000000 1.000000 1.000000 srgb
n -0.325031 20.103200 m -0.325031 21.903200 l 4.370969 21.903200 l 4.370969 20.103200 l f
0.000000 0.000000 0.000000 srgb
n -0.325031 20.103200 m -0.325031 21.903200 l 4.370969 21.903200 l 4.370969 20.103200 l cp s
/Helvetica_e0 ff 0.800000 scf sf
(/5%5915,#) sw
2 div 2.022969 ex sub 21.243200 m (/5%5915,#)
 gs 1 -1 sc sh gr
0.050000 slw
n 0.174969 21.403200 m 3.870969 21.403200 l s
0.100000 slw
[] 0 sd
[] 0 sd
0 slc
n 1.996010 20.103200 m 1.987460 18.732500 l s
0.100000 slw
[] 0 sd
[] 0 sd
0 slc
n 12.419700 18.787500 m 14.671400 19.368300 l s
0.100000 slw
0 slc
[] 0 sd
n 12.419700 16.187500 m 14.659800 13.743300 l s
0 slj
n 12.775921 15.428813 m 12.419700 16.187500 l 13.144529 15.766641 l f
0.100000 slw
0 slc
[] 0 sd
n 1.987460 16.132500 m 12.459400 13.743300 l s
0 slj
n 2.711809 15.710814 m 1.987460 16.132500 l 2.823027 16.198287 l f
0.100000 slw
[] 0 sd
1.000000 1.000000 1.000000 srgb
n 5.195280 16.116800 m 5.195280 18.716800 l 8.967280 18.716800 l 8.967280 16.116800 l f
0.000000 0.000000 0.000000 srgb
n 5.195280 16.116800 m 5.195280 18.716800 l 8.967280 18.716800 l 8.967280 16.116800 l cp s
/Helvetica_e0 ff 0.800000 scf sf
(,%*'58#) sw
2 div 7.081280 ex sub 17.256800 m (,%*'58#)
 gs 1 -1 sc sh gr
(:::) sw
2 div 7.081280 ex sub 18.056800 m (:::)
 gs 1 -1 sc sh gr
0.050000 slw
n 5.695280 17.416800 m 8.467280 17.416800 l s
n 6.804080 18.216800 m 7.358480 18.216800 l s
0.100000 slw
0 slc
[] 0 sd
n 7.104240 16.116800 m 13.559600 13.743300 l s
0 slj
n 7.768822 15.606084 m 7.104240 16.116800 l 7.941368 16.075369 l f
0.100000 slw
[] 0 sd
[] 0 sd
0 slc
0 slj
0 slc
0 slj
[] 0 sd
1.000000 1.000000 1.000000 srgb
n 16.237000 11.373000 m 23.683510 11.373000 l 22.194208 13.780110 l 17.726302 13.780110 l 16.237000 11.373000 l f
0.000000 0.000000 0.000000 srgb
n 16.237000 11.373000 m 23.683510 11.373000 l 22.194208 13.780110 l 17.726302 13.780110 l 16.237000 11.373000 l s
/Courier_e0 ff 0.800000 scf sf
(0"'%65!) sw
2 div 19.960255 ex sub 12.371245 m (0"'%65!)
 gs 1 -1 sc sh gr
(35 7"$#) sw
2 div 19.960255 ex sub 13.171245 m (35 7"$#)
 gs 1 -1 sc sh gr
0.100000 slw
[] 0 sd
1.000000 1.000000 1.000000 srgb
n 18.500900 16.227800 m 18.500900 18.827800 l 22.352100 18.827800 l 22.352100 16.227800 l f
0.000000 0.000000 0.000000 srgb
n 18.500900 16.227800 m 18.500900 18.827800 l 22.352100 18.827800 l 22.352100 16.227800 l cp s
/Helvetica_e0 ff 0.800000 scf sf
(,%*'58#) sw
2 div 20.426500 ex sub 17.367800 m (,%*'58#)
 gs 1 -1 sc sh gr
(5/54%*') sw
2 div 20.426500 ex sub 18.167800 m (5/54%*')
 gs 1 -1 sc sh gr
0.050000 slw
n 19.040500 17.527800 m 21.812500 17.527800 l s
n 19.000900 18.327800 m 21.852100 18.327800 l s
0.100000 slw
[] 0 sd
[] 0 sd
0 slc
n 20.434100 18.827800 m 19.483200 19.368300 l s
0.100000 slw
0 slc
[] 0 sd
n 20.434100 16.227800 m 18.860100 13.780100 l s
0 slj
n 19.791125 15.690136 m 20.434100 16.227800 l 20.211677 15.419699 l f
0.100000 slw
0 slc
[] 0 sd
n 26.259100 16.112900 m 19.960300 13.780100 l s
0 slj
n 25.422072 16.069496 m 26.259100 16.112900 l 25.595723 15.600620 l f
0.100000 slw
[] 0 sd
0 slc
n 10.625800 12.539800 m 3.886580 12.579300 l s
1.000000 1.000000 1.000000 srgb
n 4.236574 12.577249 0.350000 0.350000 0 360 ellipse f
0.000000 0.000000 0.000000 srgb
n 4.236574 12.577249 0.350000 0.350000 0 360 ellipse cp s
4.174240 12.004500 m /Courier_e0 ff 0.800000 scf sf
(5  #,,94*"$%)
 gs 1 -1 sc sh gr
0.100000 slw
[] 0 sd
1.000000 1.000000 1.000000 srgb
n 5.114860 21.652400 m 5.114860 24.252400 l 9.467660 24.252400 l 9.467660 21.652400 l f
0.000000 0.000000 0.000000 srgb
n 5.114860 21.652400 m 5.114860 24.252400 l 9.467660 24.252400 l 9.467660 21.652400 l cp s
/Helvetica_e0 ff 0.800000 scf sf
(#;%#$%"*$) sw
2 div 7.291260 ex sub 22.792400 m (#;%#$%"*$)
 gs 1 -1 sc sh gr
(2<=) sw
2 div 7.291260 ex sub 23.592400 m (2<=)
 gs 1 -1 sc sh gr
0.050000 slw
n 5.614860 22.952400 m 8.967660 22.952400 l s
n 6.644460 23.752400 m 7.938060 23.752400 l s
0.100000 slw
0 slc
[] 0 sd
n 7.302580 21.652400 m 13.559600 13.743300 l s
0 slj
n 7.602866 20.869886 m 7.302580 21.652400 l 7.994994 21.180105 l f
0.100000 slw
[] 0 sd
1.000000 1.000000 1.000000 srgb
n 14.811700 22.470100 m 14.811700 24.270100 l 18.689300 24.270100 l 18.689300 22.470100 l f
0.000000 0.000000 0.000000 srgb
n 14.811700 22.470100 m 14.811700 24.270100 l 18.689300 24.270100 l 18.689300 22.470100 l cp s
/Helvetica_e0 ff 0.800000 scf sf
(>'##$#%) sw
2 div 16.750500 ex sub 23.610100 m (>'##$#%)
 gs 1 -1 sc sh gr
0.050000 slw
n 15.311700 23.770100 m 18.189300 23.770100 l s
0.100000 slw
[] 0 sd
[] 0 sd
0 slc
n 12.419700 18.787500 m 14.671400 19.368300 l s
0.100000 slw
[] 0 sd
1.000000 1.000000 1.000000 srgb
n 24.175900 16.162900 m 24.175900 18.762900 l 28.027100 18.762900 l 28.027100 16.162900 l f
0.000000 0.000000 0.000000 srgb
n 24.175900 16.162900 m 24.175900 18.762900 l 28.027100 18.762900 l 28.027100 16.162900 l cp s
/Helvetica_e0 ff 0.800000 scf sf
(,%*'58#) sw
2 div 26.101500 ex sub 17.302900 m (,%*'58#)
 gs 1 -1 sc sh gr
(5/54%*') sw
2 div 26.101500 ex sub 18.102900 m (5/54%*')
 gs 1 -1 sc sh gr
0.050000 slw
n 24.715500 17.462900 m 27.487500 17.462900 l s
n 24.675900 18.262900 m 27.527100 18.262900 l s
0.100000 slw
0 slc
[] 0 sd
n 1.490790 5.227210 m 3.886580 11.279300 l s
0 slj
n 2.017696 5.879030 m 1.490790 5.227210 l 1.552798 6.063066 l f
/Helvetica_e0 ff 0.800000 scf sf
(?@<) sw
2 div 1.987470 ex sub 8.367060 m (?@<)
 gs 1 -1 sc sh gr
0.100000 slw
0 slc
[] 0 sd
n 1.892780 11.279300 m -0.018210 5.227210 l s
0 slj
n 1.413500 10.591703 m 1.892780 11.279300 l 1.890295 10.441151 l f
0.600000 0.700000 1.000000 srgb
n 16.147095 1.027910 9.163975 7.100000 0 360 ellipse f
0.100000 slw
[] 0 sd
[] 0 sd
n 16.147095 1.027910 9.163975 7.100000 0 360 ellipse cp s
0.100000 slw
[] 0 sd
1.000000 1.000000 1.000000 srgb
n 12.165500 -1.111520 m 12.165500 0.688480 l 15.119100 0.688480 l 15.119100 -1.111520 l f
0.000000 0.000000 0.000000 srgb
n 12.165500 -1.111520 m 12.165500 0.688480 l 15.119100 0.688480 l 15.119100 -1.111520 l cp s
/Helvetica_e0 ff 0.800000 scf sf
(4!5 #) sw
2 div 13.642300 ex sub 0.028480 m (4!5 #)
 gs 1 -1 sc sh gr
0.050000 slw
n 12.665500 0.188480 m 14.619100 0.188480 l s
0.100000 slw
[] 0 sd
1.000000 1.000000 1.000000 srgb
n 17.865500 4.793480 m 17.865500 6.593480 l 20.819100 6.593480 l 20.819100 4.793480 l f
0.000000 0.000000 0.000000 srgb
n 17.865500 4.793480 m 17.865500 6.593480 l 20.819100 6.593480 l 20.819100 4.793480 l cp s
/Helvetica_e0 ff 0.800000 scf sf
(4!5 #) sw
2 div 19.342300 ex sub 5.933480 m (4!5 #)
 gs 1 -1 sc sh gr
0.050000 slw
n 18.365500 6.093480 m 20.319100 6.093480 l s
0.100000 slw
[] 0 sd
1.000000 1.000000 1.000000 srgb
n 19.315500 1.896870 m 19.315500 3.696870 l 22.269100 3.696870 l 22.269100 1.896870 l f
0.000000 0.000000 0.000000 srgb
n 19.315500 1.896870 m 19.315500 3.696870 l 22.269100 3.696870 l 22.269100 1.896870 l cp s
/Helvetica_e0 ff 0.800000 scf sf
(4!5 #) sw
2 div 20.792300 ex sub 3.036870 m (4!5 #)
 gs 1 -1 sc sh gr
0.050000 slw
n 19.815500 3.196870 m 21.769100 3.196870 l s
0.100000 slw
[] 0 sd
1.000000 1.000000 1.000000 srgb
n 12.765500 4.196870 m 12.765500 5.996870 l 15.719100 5.996870 l 15.719100 4.196870 l f
0.000000 0.000000 0.000000 srgb
n 12.765500 4.196870 m 12.765500 5.996870 l 15.719100 5.996870 l 15.719100 4.196870 l cp s
/Helvetica_e0 ff 0.800000 scf sf
(4!5 #) sw
2 div 14.242300 ex sub 5.336870 m (4!5 #)
 gs 1 -1 sc sh gr
0.050000 slw
n 13.265500 5.496870 m 15.219100 5.496870 l s
0.100000 slw
[] 0 sd
1.000000 1.000000 1.000000 srgb
n 8.615530 2.096870 m 8.615530 3.896870 l 11.569130 3.896870 l 11.569130 2.096870 l f
0.000000 0.000000 0.000000 srgb
n 8.615530 2.096870 m 8.615530 3.896870 l 11.569130 3.896870 l 11.569130 2.096870 l cp s
/Helvetica_e0 ff 0.800000 scf sf
(4!5 #) sw
2 div 10.092330 ex sub 3.236870 m (4!5 #)
 gs 1 -1 sc sh gr
0.050000 slw
n 9.115530 3.396870 m 11.069130 3.396870 l s
0.100000 slw
[] 0 sd
[0.400000] 0 sd
0 slc
n 10.092330 2.096870 m 13.642300 0.688480 l s
0.100000 slw
[] 0 sd
0 slj
0 slc
n 12.990877 1.215877 m 13.642300 0.688480 l 12.806491 0.751117 l s
11.959015 1.866871 m /Courier_e0 ff 0.800000 scf sf
(AB)
 gs 1 -1 sc sh gr
0.100000 slw
0 slc
[] 0 sd
n 19.315500 2.796870 m 15.119100 -0.211520 l s
0 slj
n 18.519657 2.533938 m 19.315500 2.796870 l 18.810978 2.127574 l f
0.100000 slw
[] 0 sd
[] 0 sd
0 slc
n 13.698750 -1.771090 2.187032 2.187032 134.512457 45.487543 ellipse s
0.100000 slw
[] 0 sd
[] 0 sd
0 slc
n 12.165500 -0.211522 m 11.565500 -0.458126 l s
0.100000 slw
[] 0 sd
[] 0 sd
0 slc
n 14.402550 3.583912 2.187032 2.187032 134.512457 45.487543 ellipse s
0.100000 slw
[] 0 sd
[] 0 sd
0 slc
n 12.869300 5.143480 m 12.269300 4.896870 l s
0.100000 slw
[1.000000] 0 sd
[0.400000] 0 sd
0 slj
0 slc
n 13.642300 0.688480 m 13.642300 2.541870 l 14.242300 2.541870 l 14.242300 4.196870 l s
0.100000 slw
[] 0 sd
0 slj
0 slc
n 13.992300 3.396870 m 14.242300 4.196870 l 14.492300 3.396870 l s
0.100000 slw
0 slc
[] 0 sd
n 17.865500 5.693480 m 15.719100 5.096870 l s
0 slj
n 17.027770 5.720104 m 17.865500 5.693480 l 17.161673 5.238367 l f
0.100000 slw
0 slc
[] 0 sd
n 19.315500 2.796870 m 15.719100 5.096870 l s
0 slj
n 18.776232 3.438500 m 19.315500 2.796870 l 18.506846 3.017275 l f
1.000000 1.000000 1.000000 srgb
n 9.767000 -4.411430 m 9.767000 -1.711430 l 22.565600 -1.711430 l 22.565600 -4.411430 l f
0.100000 slw
[] 0 sd
[] 0 sd
0 slj
1.000000 0.996078 0.996078 srgb
n 9.767000 -4.411430 m 9.767000 -1.711430 l 22.565600 -1.711430 l 22.565600 -4.411430 l cp s
0.000000 0.000000 0.000000 srgb
/Helvetica-Bold_e0 ff 1.200000 scf sf
($#%+*'.9*C96,#',9/5%5) sw
2 div 16.049500 ex sub -2.996430 m ($#%+*'.9*C96,#',9/5%5)
 gs 1 -1 sc sh gr
(95$/9544!" 5%"*$,) sw
2 div 16.049500 ex sub -1.796430 m (95$/9544!" 5%"*$,)
 gs 1 -1 sc sh gr
0.100000 slw
0 slc
[] 0 sd
n 12.765500 5.096870 m 3.886580 12.579300 l s
0 slj
n 12.314858 5.803568 m 12.765500 5.096870 l 11.992653 5.421228 l f
0.100000 slw
0 slc
[] 0 sd
n 3.886580 12.579300 m 19.342300 6.593480 l s
0 slj
n 4.542299 12.057253 m 3.886580 12.579300 l 4.722874 12.523507 l f
showpage
