%!PS-Adobe-2.0 EPSF-2.0
%%Title: network.dia
%%Creator: Dia v0.90
%%CreationDate: Wed Sep 18 23:06:13 2002
%%For: a user
%%Magnification: 1.0000
%%Orientation: Portrait
%%BoundingBox: 0 0 428 506
%%Pages: 1
%%EndComments
%%BeginProlog
/cp {closepath} bind def
/c {curveto} bind def
/f {fill} bind def
/a {arc} bind def
/ef {eofill} bind def
/ex {exch} bind def
/gr {grestore} bind def
/gs {gsave} bind def
/sa {save} bind def
/rs {restore} bind def
/l {lineto} bind def
/m {moveto} bind def
/rm {rmoveto} bind def
/n {newpath} bind def
/s {stroke} bind def
/sh {show} bind def
/slc {setlinecap} bind def
/slj {setlinejoin} bind def
/slw {setlinewidth} bind def
/srgb {setrgbcolor} bind def
/rot {rotate} bind def
/sc {scale} bind def
/sd {setdash} bind def
/ff {findfont} bind def
/sf {setfont} bind def
/scf {scalefont} bind def
/sw {stringwidth pop} bind def
/tr {translate} bind def

/ellipsedict 8 dict def
ellipsedict /mtrx matrix put
/ellipse
{ ellipsedict begin
   /endangle exch def
   /startangle exch def
   /yrad exch def
   /xrad exch def
   /y exch def
   /x exch def   /savematrix mtrx currentmatrix def
   x y tr xrad yrad sc
   0 0 1 startangle endangle arc
   savematrix setmatrix
   end
} def

/mergeprocs {
dup length
3 -1 roll
dup
length
dup
5 1 roll
3 -1 roll
add
array cvx
dup
3 -1 roll
0 exch
putinterval
dup
4 2 roll
putinterval
} bind def
%%EndProlog

%%BeginSetup
%%EndSetup
19.290162 -19.290162 scale
-3.888100 -26.401345 translate

0.100000 slw
[] 0 sd
[0.400000] 0 sd
0 slc
0.000000 0.000000 0.000000 srgb
n 14.888100 24.252011 m 6.969050 25.999970 l s
0.100000 slw
[] 0 sd
0 slj
0 slc
n 7.696361 25.583414 m 6.969050 25.999970 l 7.804131 26.071662 l s
10.797550 25.697793 m  [ /xi /xi /xi /xi /xi /xi /xi /xi /xi /xi /xi /xi /xi /xi /xi /xi
 /xi /xi /xi /xi /xi /xi /xi /xi /xi /xi /xi /xi /xi /xi /xi /xi
 /braceleft /a /g /r /e /m /n /t /xi /xi /braceright /A /s /k /o /v
 /i /u /l /c /h /b /y /z /p /w /space /f /d /j /xi /xi
 /xi /xi /xi /xi /xi /xi /xi /xi /xi /xi /xi /xi /xi /xi /xi /xi
 /xi /xi /xi /xi /xi /xi /xi /xi /xi /xi /xi /xi /xi /xi /xi /xi
 /xi /xi /xi /xi /xi /xi /xi /xi /xi /xi /xi /xi /xi /xi /xi /xi
 /xi /xi /xi /xi /xi /xi /xi /xi /xi /xi /xi /xi /xi /xi /xi /xi
 /xi /xi /xi /xi /xi /xi /xi /xi /xi /xi /xi /xi /xi /xi /xi /xi
 /xi /xi /xi /xi /xi /xi /xi /xi /xi /xi /xi /xi /xi /xi /xi /xi
 /xi /xi /xi /xi /xi /xi /xi /xi /xi /xi /xi /xi /xi /xi /xi /xi
 /xi /xi /xi /xi /xi /xi /xi /xi /xi /xi /xi /xi /xi /xi /xi /xi
 /xi /xi /xi /xi /xi /xi /xi /xi /xi /xi /xi /xi /xi /xi /xi /xi
 /xi /xi /xi /xi /xi /xi /xi /xi /xi /xi /xi /xi /xi /xi /xi /xi
 /xi /xi /xi /xi /xi /xi /xi /xi /xi /xi /xi /xi /xi /xi /xi /xi
 /xi /xi /xi /xi /xi /xi /xi /xi /xi /xi /xi /xi /xi /xi /xi /xi
] /e0 exch def
/Courier_e0 undefinefont
/Courier_e0
  /Courier findfont
  dup length dict begin
  {1 index /FID ne {def} {pop pop} ifelse} forall
  /Encoding e0 def
  currentdict end
definefont pop
/Courier_e0 ff 0.800000 scf sf
( !"#$$%$&'*)
 gs 1 -1 sc sh gr
1.000000 0.479749 0.552350 srgb
n 3.938100 17.855500 m 3.938100 25.999970 l 10.000000 25.999970 l 10.000000 17.855500 l f
0.100000 slw
[] 0 sd
[] 0 sd
0 slj
0.000000 0.000000 0.000000 srgb
n 3.938100 17.855500 m 3.938100 25.999970 l 10.000000 25.999970 l 10.000000 17.855500 l cp s
0.100000 slw
[] 0 sd
1.000000 1.000000 1.000000 srgb
n 4.456400 20.517100 m 4.456400 24.402190 l 10.807270 24.402190 l 10.807270 20.517100 l f
0.000000 0.000000 0.000000 srgb
n 4.456400 20.517100 m 4.456400 24.402190 l 10.807270 24.402190 l 10.807270 20.517100 l cp s
1.000000 1.000000 1.000000 srgb
n 4.456400 18.717100 m 4.456400 20.517100 l 8.255600 20.517100 l 8.255600 18.717100 l f
0.000000 0.000000 0.000000 srgb
n 4.456400 18.717100 m 4.456400 20.517100 l 8.255600 20.517100 l 8.255600 18.717100 l cp s
4.556400 20.211790 m /Courier_e0 ff 0.800000 scf sf
(+,-$%.,)
 gs 1 -1 sc sh gr
0.100000 slw
[] 0 sd
[] 0 sd
0 slc
0 slj
0 slc
0 slj
[] 0 sd
1.000000 1.000000 1.000000 srgb
n 4.999080 20.767600 m 12.445590 20.767600 l 10.956288 23.174710 l 6.488382 23.174710 l 4.999080 20.767600 l f
0.000000 0.000000 0.000000 srgb
n 4.999080 20.767600 m 12.445590 20.767600 l 10.956288 23.174710 l 6.488382 23.174710 l 4.999080 20.767600 l s
/Courier_e0 ff 0.800000 scf sf
(/0#'1!2) sw
2 div 8.722335 ex sub 21.765845 m (/0#'1!2)
 gs 1 -1 sc sh gr
(%!340&$) sw
2 div 8.722335 ex sub 22.565845 m (%!340&$)
 gs 1 -1 sc sh gr
0.100000 slw
[] 0 sd
[0.400000] 0 sd
0 slc
n 14.938100 24.352011 m 19.953645 25.945430 l s
0.100000 slw
[] 0 sd
0 slj
0 slc
n 19.115502 25.941468 m 19.953645 25.945430 l 19.266893 25.464939 l s
17.199172 24.991671 m /Courier_e0 ff 0.800000 scf sf
( *)
 gs 1 -1 sc sh gr
1.000000 0.973474 0.371013 srgb
n 12.639200 12.367300 m 12.639200 20.522600 l 18.803560 20.522600 l 18.803560 12.367300 l f
0.100000 slw
[] 0 sd
[] 0 sd
0 slj
0.000000 0.000000 0.000000 srgb
n 12.639200 12.367300 m 12.639200 20.522600 l 18.803560 20.522600 l 18.803560 12.367300 l cp s
0.100000 slw
[] 0 sd
1.000000 1.000000 1.000000 srgb
n 13.039300 15.038000 m 13.039300 18.923090 l 19.390170 18.923090 l 19.390170 15.038000 l f
0.000000 0.000000 0.000000 srgb
n 13.039300 15.038000 m 13.039300 18.923090 l 19.390170 18.923090 l 19.390170 15.038000 l cp s
1.000000 1.000000 1.000000 srgb
n 13.039300 13.238000 m 13.039300 15.038000 l 16.838500 15.038000 l 16.838500 13.238000 l f
0.000000 0.000000 0.000000 srgb
n 13.039300 13.238000 m 13.039300 15.038000 l 16.838500 15.038000 l 16.838500 13.238000 l cp s
13.139300 14.732690 m /Courier_e0 ff 0.800000 scf sf
(+,-$%.,)
 gs 1 -1 sc sh gr
0.100000 slw
[] 0 sd
[] 0 sd
0 slc
0 slj
0 slc
0 slj
[] 0 sd
1.000000 1.000000 1.000000 srgb
n 13.582000 15.288500 m 21.028510 15.288500 l 19.539208 17.695610 l 15.071302 17.695610 l 13.582000 15.288500 l f
0.000000 0.000000 0.000000 srgb
n 13.582000 15.288500 m 21.028510 15.288500 l 19.539208 17.695610 l 15.071302 17.695610 l 13.582000 15.288500 l s
/Courier_e0 ff 0.800000 scf sf
(/0#'1!2) sw
2 div 17.305255 ex sub 16.286745 m (/0#'1!2)
 gs 1 -1 sc sh gr
(%!340&$) sw
2 div 17.305255 ex sub 17.086745 m (%!340&$)
 gs 1 -1 sc sh gr
0.700000 0.700000 0.700000 srgb
n 16.903100 17.813300 m 16.903100 25.945430 l 23.004190 25.945430 l 23.004190 17.813300 l f
0.100000 slw
[] 0 sd
[] 0 sd
0 slj
0.000000 0.000000 0.000000 srgb
n 16.903100 17.813300 m 16.903100 25.945430 l 23.004190 25.945430 l 23.004190 17.813300 l cp s
0.100000 slw
[] 0 sd
1.000000 1.000000 1.000000 srgb
n 17.263300 20.534400 m 17.263300 24.419490 l 23.614170 24.419490 l 23.614170 20.534400 l f
0.000000 0.000000 0.000000 srgb
n 17.263300 20.534400 m 17.263300 24.419490 l 23.614170 24.419490 l 23.614170 20.534400 l cp s
1.000000 1.000000 1.000000 srgb
n 17.263300 18.734400 m 17.263300 20.534400 l 21.062500 20.534400 l 21.062500 18.734400 l f
0.000000 0.000000 0.000000 srgb
n 17.263300 18.734400 m 17.263300 20.534400 l 21.062500 20.534400 l 21.062500 18.734400 l cp s
17.363300 20.229090 m /Courier_e0 ff 0.800000 scf sf
(+,-$%.,)
 gs 1 -1 sc sh gr
0.100000 slw
[] 0 sd
[] 0 sd
0 slc
0 slj
0 slc
0 slj
[] 0 sd
1.000000 1.000000 1.000000 srgb
n 17.806000 20.784900 m 25.252510 20.784900 l 23.763208 23.192010 l 19.295302 23.192010 l 17.806000 20.784900 l f
0.000000 0.000000 0.000000 srgb
n 17.806000 20.784900 m 25.252510 20.784900 l 23.763208 23.192010 l 19.295302 23.192010 l 17.806000 20.784900 l s
/Courier_e0 ff 0.800000 scf sf
(/0#'1!2) sw
2 div 21.529255 ex sub 21.783145 m (/0#'1!2)
 gs 1 -1 sc sh gr
(%!340&$) sw
2 div 21.529255 ex sub 22.583145 m (%!340&$)
 gs 1 -1 sc sh gr
0.100000 slw
[] 0 sd
[0.400000] 0 sd
0 slc
n 14.788100 24.302011 m 15.721380 20.522600 l s
0.100000 slw
[] 0 sd
0 slj
0 slc
n 15.772300 21.359205 m 15.721380 20.522600 l 15.286881 21.239336 l s
10.870000 24.272808 m /Courier_e0 ff 0.800000 scf sf
( 567!&'0&$*)
 gs 1 -1 sc sh gr
0.600000 0.699792 1.000000 srgb
n 17.080410 6.351227 8.907690 6.099253 0 360 ellipse f
0.100000 slw
[] 0 sd
[] 0 sd
0.600000 0.700000 1.000000 srgb
n 17.080410 6.351227 8.907690 6.099253 0 360 ellipse cp s
0.100000 slw
[] 0 sd
1.000000 1.000000 1.000000 srgb
n 13.755100 4.561050 m 13.755100 6.361050 l 16.708700 6.361050 l 16.708700 4.561050 l f
0.000000 0.000000 0.000000 srgb
n 13.755100 4.561050 m 13.755100 6.361050 l 16.708700 6.361050 l 16.708700 4.561050 l cp s
/Helvetica_e0 undefinefont
/Helvetica_e0
  /Helvetica findfont
  dup length dict begin
  {1 index /FID ne {def} {pop pop} ifelse} forall
  /Encoding e0 def
  currentdict end
definefont pop
/Helvetica_e0 ff 0.800000 scf sf
(82!3$) sw
2 div 15.231900 ex sub 5.701050 m (82!3$)
 gs 1 -1 sc sh gr
0.050000 slw
n 14.255100 5.861050 m 16.208700 5.861050 l s
0.100000 slw
[] 0 sd
1.000000 1.000000 1.000000 srgb
n 19.105100 9.566050 m 19.105100 11.366050 l 22.058700 11.366050 l 22.058700 9.566050 l f
0.000000 0.000000 0.000000 srgb
n 19.105100 9.566050 m 19.105100 11.366050 l 22.058700 11.366050 l 22.058700 9.566050 l cp s
/Helvetica_e0 ff 0.800000 scf sf
(82!3$) sw
2 div 20.581900 ex sub 10.706050 m (82!3$)
 gs 1 -1 sc sh gr
0.050000 slw
n 19.605100 10.866050 m 21.558700 10.866050 l s
0.100000 slw
[] 0 sd
1.000000 1.000000 1.000000 srgb
n 20.555100 6.669440 m 20.555100 8.469440 l 23.508700 8.469440 l 23.508700 6.669440 l f
0.000000 0.000000 0.000000 srgb
n 20.555100 6.669440 m 20.555100 8.469440 l 23.508700 8.469440 l 23.508700 6.669440 l cp s
/Helvetica_e0 ff 0.800000 scf sf
(82!3$) sw
2 div 22.031900 ex sub 7.809440 m (82!3$)
 gs 1 -1 sc sh gr
0.050000 slw
n 21.055100 7.969440 m 23.008700 7.969440 l s
0.100000 slw
[] 0 sd
1.000000 1.000000 1.000000 srgb
n 13.605100 8.969440 m 13.605100 10.769440 l 16.558700 10.769440 l 16.558700 8.969440 l f
0.000000 0.000000 0.000000 srgb
n 13.605100 8.969440 m 13.605100 10.769440 l 16.558700 10.769440 l 16.558700 8.969440 l cp s
/Helvetica_e0 ff 0.800000 scf sf
(82!3$) sw
2 div 15.081900 ex sub 10.109440 m (82!3$)
 gs 1 -1 sc sh gr
0.050000 slw
n 14.105100 10.269440 m 16.058700 10.269440 l s
0.100000 slw
[] 0 sd
1.000000 1.000000 1.000000 srgb
n 9.355130 7.219440 m 9.355130 9.019440 l 12.308730 9.019440 l 12.308730 7.219440 l f
0.000000 0.000000 0.000000 srgb
n 9.355130 7.219440 m 9.355130 9.019440 l 12.308730 9.019440 l 12.308730 7.219440 l cp s
/Helvetica_e0 ff 0.800000 scf sf
(82!3$) sw
2 div 10.831930 ex sub 8.359440 m (82!3$)
 gs 1 -1 sc sh gr
0.050000 slw
n 9.855130 8.519440 m 11.808730 8.519440 l s
0.100000 slw
[] 0 sd
[0.400000] 0 sd
0 slc
n 10.831930 7.219440 m 15.231900 6.361050 l s
0.100000 slw
[] 0 sd
0 slj
0 slc
n 14.494573 6.759608 m 15.231900 6.361050 l 14.398833 6.268860 l s
13.123630 7.264440 m /Courier_e0 ff 0.800000 scf sf
( *)
 gs 1 -1 sc sh gr
0.100000 slw
0 slc
[] 0 sd
n 20.555100 7.569440 m 16.708700 5.461050 l s
0 slj
n 19.733411 7.404129 m 20.555100 7.569440 l 19.973746 6.965678 l f
0.100000 slw
[] 0 sd
[] 0 sd
0 slc
n 13.605100 9.869440 m 13.008900 9.569440 l s
0.100000 slw
[1.000000] 0 sd
[0.400000] 0 sd
0 slj
0 slc
n 15.231900 6.361050 m 15.231900 7.314440 l 15.081900 7.314440 l 15.081900 8.969440 l s
0.100000 slw
[] 0 sd
0 slj
0 slc
n 14.831900 8.169440 m 15.081900 8.969440 l 15.331900 8.169440 l s
0.100000 slw
0 slc
[] 0 sd
n 19.105100 10.466050 m 16.558700 9.869440 l s
0 slj
n 18.269164 10.526964 m 19.105100 10.466050 l 18.383223 10.040147 l f
0.100000 slw
0 slc
[] 0 sd
n 20.555100 7.569440 m 16.558700 9.869440 l s
0 slj
n 19.986432 8.185165 m 20.555100 7.569440 l 19.737028 7.751809 l f
0.100000 slw
[] 0 sd
[] 0 sd
0 slj
0 slc
n 16.558700 9.869440 m 19.288100 6.810363 11.088100 6.810363 13.605100 9.869440 c s
0.100000 slw
[] 0 sd
[] 0 sd
0 slc
n 13.755100 5.561050 m 13.188100 5.301973 l s
0.100000 slw
[] 0 sd
[] 0 sd
0 slj
0 slc
n 16.708700 5.561050 m 19.438100 2.501973 11.238100 2.501973 13.755100 5.561050 c s
1.000000 1.000000 1.000000 srgb
n 12.038100 1.651973 m 12.038100 3.844190 l 22.388100 3.844190 l 22.388100 1.651973 l f
0.100000 slw
[] 0 sd
[] 0 sd
0 slj
1.000000 0.996078 0.996078 srgb
n 12.038100 1.651973 m 12.038100 3.844190 l 22.388100 3.844190 l 22.388100 1.651973 l cp s
0.000000 0.000000 0.000000 srgb
/Helvetica-Bold_e0 undefinefont
/Helvetica-Bold_e0
  /Helvetica-Bold findfont
  dup length dict begin
  {1 index /FID ne {def} {pop pop} ifelse} forall
  /Encoding e0 def
  currentdict end
definefont pop
/Helvetica-Bold_e0 ff 1.000000 scf sf
(&$'9.#-:.;:1,$#,:<!'!) sw
2 div 17.203200 ex sub 2.559190 m (&$'9.#-:.;:1,$#,:<!'!)
 gs 1 -1 sc sh gr
(:!&<:!88203!'0.&,) sw
2 div 17.203200 ex sub 3.559190 m (:!&<:!88203!'0.&,)
 gs 1 -1 sc sh gr
0.100000 slw
[] 0 sd
[0.400000] 0 sd
0 slc
n 15.081900 10.769440 m 21.529255 20.784900 l s
0.100000 slw
[] 0 sd
0 slj
0 slc
n 20.886019 20.247548 m 21.529255 20.784900 l 21.306439 19.976907 l s
18.429827 10.979700 m /Courier_e0 ff 0.800000 scf sf
( *)
 gs 1 -1 sc sh gr
0.100000 slw
[] 0 sd
[0.400000] 0 sd
0 slc
n 15.081900 10.769440 m 17.305255 15.288500 l s
0.100000 slw
[] 0 sd
0 slj
0 slc
n 16.727768 14.681039 m 17.305255 15.288500 l 17.176409 14.460310 l s
16.317828 8.231500 m /Courier_e0 ff 0.800000 scf sf
( *)
 gs 1 -1 sc sh gr
0.100000 slw
[] 0 sd
[0.400000] 0 sd
0 slc
n 15.081900 10.769440 m 8.722335 20.767600 l s
0.100000 slw
[] 0 sd
0 slj
0 slc
n 8.940753 19.958407 m 8.722335 20.767600 l 9.362639 20.226757 l s
6.413100 14.301992 m /Courier_e0 ff 0.800000 scf sf
( 8#.=$3'0.&*)
 gs 1 -1 sc sh gr
showpage
