%!PS-Adobe-2.0 EPSF-2.0
%%Title: petri-model.dia
%%Creator: Dia v0.90
%%CreationDate: Sun Sep 15 21:15:19 2002
%%For: a user
%%Magnification: 1.0000
%%Orientation: Portrait
%%BoundingBox: 0 0 622 599
%%Pages: 1
%%EndComments
%%BeginProlog
/cp {closepath} bind def
/c {curveto} bind def
/f {fill} bind def
/a {arc} bind def
/ef {eofill} bind def
/ex {exch} bind def
/gr {grestore} bind def
/gs {gsave} bind def
/sa {save} bind def
/rs {restore} bind def
/l {lineto} bind def
/m {moveto} bind def
/rm {rmoveto} bind def
/n {newpath} bind def
/s {stroke} bind def
/sh {show} bind def
/slc {setlinecap} bind def
/slj {setlinejoin} bind def
/slw {setlinewidth} bind def
/srgb {setrgbcolor} bind def
/rot {rotate} bind def
/sc {scale} bind def
/sd {setdash} bind def
/ff {findfont} bind def
/sf {setfont} bind def
/scf {scalefont} bind def
/sw {stringwidth pop} bind def
/tr {translate} bind def

/ellipsedict 8 dict def
ellipsedict /mtrx matrix put
/ellipse
{ ellipsedict begin
   /endangle exch def
   /startangle exch def
   /yrad exch def
   /xrad exch def
   /y exch def
   /x exch def   /savematrix mtrx currentmatrix def
   x y tr xrad yrad sc
   0 0 1 startangle endangle arc
   savematrix setmatrix
   end
} def

/mergeprocs {
dup length
3 -1 roll
dup
length
dup
5 1 roll
3 -1 roll
add
array cvx
dup
3 -1 roll
0 exch
putinterval
dup
4 2 roll
putinterval
} bind def
%%EndProlog

%%BeginSetup
%%EndSetup
18.977618 -18.977618 scale
0.311930 -34.348500 translate

1.000000 1.000000 1.000000 srgb
n 23.013070 2.875867 m 23.013070 9.625867 l 32.113070 9.625867 l 32.113070 2.875867 l f
0.100000 slw
[] 0 sd
[] 0 sd
0 slj
0.000000 0.000000 0.000000 srgb
n 23.013070 2.875867 m 23.013070 9.625867 l 32.113070 9.625867 l 32.113070 2.875867 l cp s
 [ /xi /xi /xi /xi /xi /xi /xi /xi /xi /xi /xi /xi /xi /xi /xi /xi
 /xi /xi /xi /xi /xi /xi /xi /xi /xi /xi /xi /xi /xi /xi /xi /xi
 /p /l /a /c /e /P /two /three /xi /xi /four /one /braceleft /braceright /f /u
 /n /t /i /o /space /s /r /m /y /g /d /colon /X /S /L /T
 /comma /quotedbl /D /k /M /h /v /b /w /parenleft /parenright /five /xi /xi /xi /xi
 /xi /xi /xi /xi /xi /xi /xi /xi /xi /xi /xi /xi /xi /xi /xi /xi
 /xi /xi /xi /xi /xi /xi /xi /xi /xi /xi /xi /xi /xi /xi /xi /xi
 /xi /xi /xi /xi /xi /xi /xi /xi /xi /xi /xi /xi /xi /xi /xi /xi
 /xi /xi /xi /xi /xi /xi /xi /xi /xi /xi /xi /xi /xi /xi /xi /xi
 /xi /xi /xi /xi /xi /xi /xi /xi /xi /xi /xi /xi /xi /xi /xi /xi
 /xi /xi /xi /xi /xi /xi /xi /xi /xi /xi /xi /xi /xi /xi /xi /xi
 /xi /xi /xi /xi /xi /xi /xi /xi /xi /xi /xi /xi /xi /xi /xi /xi
 /xi /xi /xi /xi /xi /xi /xi /xi /xi /xi /xi /xi /xi /xi /xi /xi
 /xi /xi /xi /xi /xi /xi /xi /xi /xi /xi /xi /xi /xi /xi /xi /xi
 /xi /xi /xi /xi /xi /xi /xi /xi /xi /xi /xi /xi /xi /xi /xi /xi
 /xi /xi /xi /xi /xi /xi /xi /xi /xi /xi /xi /xi /xi /xi /xi /xi
] /e0 exch def
/Courier_e0 undefinefont
/Courier_e0
  /Courier findfont
  dup length dict begin
  {1 index /FID ne {def} {pop pop} ifelse} forall
  /Encoding e0 def
  currentdict end
definefont pop
/Courier_e0 ff 0.800000 scf sf
( !"#$) sw
2 div 27.263070 ex sub 7.787610 m ( !"#$)
 gs 1 -1 sc sh gr
1.000000 1.000000 1.000000 srgb
n 11.763070 7.987610 m 11.763070 20.637610 l 20.863070 20.637610 l 20.863070 7.987610 l f
0.100000 slw
[] 0 sd
[] 0 sd
0 slj
0.000000 0.000000 0.000000 srgb
n 11.763070 7.987610 m 11.763070 20.637610 l 20.863070 20.637610 l 20.863070 7.987610 l cp s
/Courier_e0 ff 0.800000 scf sf
( !"#$) sw
2 div 16.563070 ex sub 14.387610 m ( !"#$)
 gs 1 -1 sc sh gr
1.000000 1.000000 1.000000 srgb
n -0.111930 8.052610 m -0.111930 20.702610 l 8.988070 20.702610 l 8.988070 8.052610 l f
0.100000 slw
[] 0 sd
[] 0 sd
0 slj
0.000000 0.000000 0.000000 srgb
n -0.111930 8.052610 m -0.111930 20.702610 l 8.988070 20.702610 l 8.988070 8.052610 l cp s
/Courier_e0 ff 0.800000 scf sf
( !"#$) sw
2 div 4.688070 ex sub 14.452610 m ( !"#$)
 gs 1 -1 sc sh gr
1.000000 1.000000 1.000000 srgb
n 14.150010 11.407310 1.261910 1.261910 0 360 ellipse f
0.100000 slw
[] 0 sd
[] 0 sd
0 slj
0.000000 0.000000 0.000000 srgb
n 14.150010 11.407310 1.261910 1.261910 0 360 ellipse cp s
/Courier_e0 ff 0.800000 scf sf
(%&) sw
2 div 14.150010 ex sub 11.602000 m (%&)
 gs 1 -1 sc sh gr
1.000000 1.000000 1.000000 srgb
n 14.191410 17.148710 1.261910 1.261910 0 360 ellipse f
0.100000 slw
[] 0 sd
[] 0 sd
0 slj
0.000000 0.000000 0.000000 srgb
n 14.191410 17.148710 1.261910 1.261910 0 360 ellipse cp s
/Courier_e0 ff 0.800000 scf sf
(%') sw
2 div 14.191410 ex sub 17.343400 m (%')
 gs 1 -1 sc sh gr
1.000000 1.000000 1.000000 srgb
n 25.005955 5.757320 1.355955 1.261910 0 360 ellipse f
0.100000 slw
[] 0 sd
[] 0 sd
0 slj
0.000000 0.000000 0.000000 srgb
n 25.005955 5.757320 1.355955 1.261910 0 360 ellipse cp s
/Courier_e0 ff 0.800000 scf sf
(%*) sw
2 div 25.005955 ex sub 5.952010 m (%*)
 gs 1 -1 sc sh gr
1.000000 1.000000 1.000000 srgb
n 1.563602 14.654555 1.274415 1.242555 0 360 ellipse f
0.100000 slw
[] 0 sd
[] 0 sd
0 slj
0.000000 0.000000 0.000000 srgb
n 1.563602 14.654555 1.274415 1.242555 0 360 ellipse cp s
/Courier_e0 ff 0.800000 scf sf
(%+) sw
2 div 1.563602 ex sub 14.849245 m (%+)
 gs 1 -1 sc sh gr
0.100000 slw
0 slc
[] 0 sd
n 5.841070 11.412610 m 2.464750 13.776000 l s
0 slj
n 5.329046 12.076184 m 5.841070 11.412610 l 5.042317 11.666566 l f
0.100000 slw
0 slc
[] 0 sd
n 6.013070 17.612610 m 2.464750 15.533200 l s
0 slj
n 5.196456 17.423818 m 6.013070 17.612610 l 5.449258 16.992436 l f
0.100000 slw
0 slc
[] 0 sd
n 12.888100 11.407300 m 8.015953 11.412610 l s
0 slj
n 12.088373 11.658172 m 12.888100 11.407300 l 12.087828 11.158172 l f
0.100000 slw
0 slc
[] 0 sd
n 17.757570 17.112610 m 15.453300 17.148700 l s
0 slj
n 16.961583 17.375108 m 17.757570 17.112610 l 16.953753 16.875169 l f
0.100000 slw
0 slc
[] 0 sd
n 17.688070 11.427610 m 15.411900 11.407300 l s
0 slj
n 16.885871 11.670462 m 17.688070 11.427610 l 16.890332 11.170482 l f
0.100000 slw
0 slc
[] 0 sd
n 24.047100 6.649620 m 19.818953 11.427610 l s
0 slj
n 23.704159 7.414402 m 24.047100 6.649620 l 23.329717 7.083051 l f
0.100000 slw
0 slc
[] 0 sd
n 29.152070 5.762610 m 26.361900 5.757320 l s
0 slj
n 28.351597 6.011093 m 29.152070 5.762610 l 28.352545 5.511094 l f
0.100000 slw
[] 0 sd
[] 0 sd
0 slc
n 16.344455 21.888289 6.039182 6.039182 306.475246 233.922411 ellipse s
0.100000 slw
0 slc
[] 0 sd
n 12.788100 17.007300 m 12.000000 17.630300 l s
0 slj
n 12.315546 17.699537 m 12.788100 17.007300 l 12.005474 17.307294 l f
0.100000 slw
[] 0 sd
[0.400000] 0 sd
0 slc
n 24.150000 12.865200 m 21.450000 9.615180 l s
0.100000 slw
[] 0 sd
0 slj
0 slc
n 22.153512 10.070780 m 21.450000 9.615180 l 21.768916 10.390288 l s
22.800000 11.240200 m /Courier_e0 ff 0.800000 scf sf
(,-)
 gs 1 -1 sc sh gr
0.100000 slw
[] 0 sd
1.000000 1.000000 1.000000 srgb
n 24.150000 12.865200 m 31.639600 12.865200 l 32.239600 13.465200 l 32.239600 14.565200 l 24.150000 14.565200 l f
0.000000 0.000000 0.000000 srgb
n 24.150000 12.865200 m 31.639600 12.865200 l 32.239600 13.465200 l 32.239600 14.565200 l 24.150000 14.565200 l cp s
0.050000 slw
n 31.639600 12.865200 m 31.639600 13.465200 l 32.239600 13.465200 l s
24.500000 14.109890 m /Courier_e0 ff 0.800000 scf sf
(./0#123043.4%&)
 gs 1 -1 sc sh gr
0.100000 slw
[] 0 sd
1.000000 1.000000 1.000000 srgb
n 23.982200 15.988000 m 31.471800 15.988000 l 32.071800 16.588000 l 32.071800 17.688000 l 23.982200 17.688000 l f
0.000000 0.000000 0.000000 srgb
n 23.982200 15.988000 m 31.471800 15.988000 l 32.071800 16.588000 l 32.071800 17.688000 l 23.982200 17.688000 l cp s
0.050000 slw
n 31.471800 15.988000 m 31.471800 16.588000 l 32.071800 16.588000 l s
24.332200 17.232690 m /Courier_e0 ff 0.800000 scf sf
(./0#123043.4%')
 gs 1 -1 sc sh gr
0.100000 slw
[] 0 sd
[0.400000] 0 sd
0 slc
n 23.982200 17.688000 m 21.900000 19.465200 l s
0.100000 slw
[] 0 sd
0 slj
0 slc
n 22.346193 18.755685 m 21.900000 19.465200 l 22.670794 19.135993 l s
22.941100 18.576600 m /Courier_e0 ff 0.800000 scf sf
(,-)
 gs 1 -1 sc sh gr
0.100000 slw
[] 0 sd
1.000000 1.000000 1.000000 srgb
n 21.088400 23.042900 m 31.763600 23.042900 l 32.363600 23.642900 l 32.363600 27.942900 l 21.088400 27.942900 l f
0.000000 0.000000 0.000000 srgb
n 21.088400 23.042900 m 31.763600 23.042900 l 32.363600 23.642900 l 32.363600 27.942900 l 21.088400 27.942900 l cp s
0.050000 slw
n 31.763600 23.042900 m 31.763600 23.642900 l 32.363600 23.642900 l s
21.438400 24.287590 m /Courier_e0 ff 0.800000 scf sf
(./0#123054"6$)
 gs 1 -1 sc sh gr
21.438400 25.087590 m (16$$416"05.367"12305)
 gs 1 -1 sc sh gr
21.438400 25.887590 m (204"084!"09/"9$)
 gs 1 -1 sc sh gr
21.438400 26.687590 m (#/66$01!845/  361$:;)
 gs 1 -1 sc sh gr
21.438400 27.487590 m (<=>?@4AB===>A)
 gs 1 -1 sc sh gr
0.100000 slw
[] 0 sd
1.000000 1.000000 1.000000 srgb
n -0.195511 23.077000 m 8.411689 23.077000 l 9.011689 23.677000 l 9.011689 27.977000 l -0.195511 27.977000 l f
0.000000 0.000000 0.000000 srgb
n -0.195511 23.077000 m 8.411689 23.077000 l 9.011689 23.677000 l 9.011689 27.977000 l -0.195511 27.977000 l cp s
0.050000 slw
n 8.411689 23.077000 m 8.411689 23.677000 l 9.011689 23.677000 l s
0.154489 24.321690 m /Courier_e0 ff 0.800000 scf sf
( $16247"6C2095)
 gs 1 -1 sc sh gr
0.154489 25.121690 m ("6$4<D>4$!$7$015)
 gs 1 -1 sc sh gr
0.154489 25.921690 m (1E$8416"F$!)
 gs 1 -1 sc sh gr
0.154489 26.721690 m (2047$55"9$5)
 gs 1 -1 sc sh gr
0.154489 27.521690 m (G$1H$$04 !"#$5)
 gs 1 -1 sc sh gr
0.100000 slw
[] 0 sd
1.000000 1.000000 1.000000 srgb
n 7.016980 30.998500 m 23.376980 30.998500 l 23.976980 31.598500 l 23.976980 34.298500 l 7.016980 34.298500 l f
0.000000 0.000000 0.000000 srgb
n 7.016980 30.998500 m 23.376980 30.998500 l 23.976980 31.598500 l 23.976980 34.298500 l 7.016980 34.298500 l cp s
0.050000 slw
n 23.376980 30.998500 m 23.376980 31.598500 l 23.976980 31.598500 l s
7.366980 32.243190 m /Courier_e0 ff 0.800000 scf sf
(:"1"4I<D>4$!$7$015J)
 gs 1 -1 sc sh gr
7.366980 33.043190 m ("0:4./0#123054I16"05212304#3:$J)
 gs 1 -1 sc sh gr
7.366980 33.843190 m (.3674"4#!35/6$)
 gs 1 -1 sc sh gr
0.100000 slw
0 slc
[] 0 sd
n 7.016980 30.998500 m 4.408089 27.977000 l s
0 slj
n 6.304927 30.556367 m 7.016980 30.998500 l 6.683375 30.229600 l f
0.100000 slw
0 slc
[] 0 sd
n 22.661000 30.998500 m 26.486400 27.942900 l s
0 slj
n 23.130044 30.303880 m 22.661000 30.998500 l 23.442098 30.694549 l f
/Helvetica-Narrow-Bold_e0 undefinefont
/Helvetica-Narrow-Bold_e0
  /Helvetica-Narrow-Bold findfont
  dup length dict begin
  {1 index /FID ne {def} {pop pop} ifelse} forall
  /Encoding e0 def
  currentdict end
definefont pop
/Helvetica-Narrow-Bold_e0 ff 1.500000 scf sf
(D"  2094 $16240$1473:$!5) sw
2 div 9.414820 ex sub 4.752610 m (D"  2094 $16240$1473:$!5)
 gs 1 -1 sc sh gr
0.100000 slw
[] 0 sd
[] 0 sd
0 slc
0 slj
0 slc
0 slj
[] 0 sd
1.000000 1.000000 1.000000 srgb
n 17.688070 9.802610 m 17.688070 13.052610 l 19.818953 13.052610 l 19.818953 9.802610 l f
0.000000 0.000000 0.000000 srgb
n 17.688070 9.802610 m 17.688070 13.052610 l 19.818953 13.052610 l 19.818953 9.802610 l cp s
0 slc
0 slj
[] 0 sd
n 17.901158 9.802610 m 17.901158 13.052610 l s
0 slc
0 slj
[] 0 sd
n 19.605865 9.802610 m 19.605865 13.052610 l s
/Courier_e0 ff 0.800000 scf sf
(?') sw
2 div 18.753512 ex sub 11.622300 m (?')
 gs 1 -1 sc sh gr
0.100000 slw
[] 0 sd
[] 0 sd
0 slc
0 slj
0 slc
0 slj
[] 0 sd
1.000000 1.000000 1.000000 srgb
n 17.757570 15.487610 m 17.757570 18.737610 l 19.899453 18.737610 l 19.899453 15.487610 l f
0.000000 0.000000 0.000000 srgb
n 17.757570 15.487610 m 17.757570 18.737610 l 19.899453 18.737610 l 19.899453 15.487610 l cp s
0 slc
0 slj
[] 0 sd
n 17.971758 15.487610 m 17.971758 18.737610 l s
0 slc
0 slj
[] 0 sd
n 19.685265 15.487610 m 19.685265 18.737610 l s
/Courier_e0 ff 0.800000 scf sf
(?*) sw
2 div 18.828512 ex sub 17.307300 m (?*)
 gs 1 -1 sc sh gr
0.100000 slw
[] 0 sd
[] 0 sd
0 slc
0 slj
0 slc
0 slj
[] 0 sd
1.000000 1.000000 1.000000 srgb
n 5.841070 9.787610 m 5.841070 13.037610 l 8.015953 13.037610 l 8.015953 9.787610 l f
0.000000 0.000000 0.000000 srgb
n 5.841070 9.787610 m 5.841070 13.037610 l 8.015953 13.037610 l 8.015953 9.787610 l cp s
0 slc
0 slj
[] 0 sd
n 6.058558 9.787610 m 6.058558 13.037610 l s
0 slc
0 slj
[] 0 sd
n 7.798465 9.787610 m 7.798465 13.037610 l s
/Courier_e0 ff 0.800000 scf sf
(?+) sw
2 div 6.928512 ex sub 11.607300 m (?+)
 gs 1 -1 sc sh gr
0.100000 slw
[] 0 sd
[] 0 sd
0 slc
0 slj
0 slc
0 slj
[] 0 sd
1.000000 1.000000 1.000000 srgb
n 6.013070 15.987610 m 6.013070 19.237610 l 8.143953 19.237610 l 8.143953 15.987610 l f
0.000000 0.000000 0.000000 srgb
n 6.013070 15.987610 m 6.013070 19.237610 l 8.143953 19.237610 l 8.143953 15.987610 l cp s
0 slc
0 slj
[] 0 sd
n 6.226158 15.987610 m 6.226158 19.237610 l s
0 slc
0 slj
[] 0 sd
n 7.930865 15.987610 m 7.930865 19.237610 l s
/Courier_e0 ff 0.800000 scf sf
(?&) sw
2 div 7.078512 ex sub 17.807300 m (?&)
 gs 1 -1 sc sh gr
0.100000 slw
[] 0 sd
[] 0 sd
0 slc
0 slj
0 slc
0 slj
[] 0 sd
1.000000 1.000000 1.000000 srgb
n 29.152070 4.137610 m 29.152070 7.387610 l 31.304953 7.387610 l 31.304953 4.137610 l f
0.000000 0.000000 0.000000 srgb
n 29.152070 4.137610 m 29.152070 7.387610 l 31.304953 7.387610 l 31.304953 4.137610 l cp s
0 slc
0 slj
[] 0 sd
n 29.367358 4.137610 m 29.367358 7.387610 l s
0 slc
0 slj
[] 0 sd
n 31.089665 4.137610 m 31.089665 7.387610 l s
/Courier_e0 ff 0.800000 scf sf
(?K) sw
2 div 30.228512 ex sub 5.957300 m (?K)
 gs 1 -1 sc sh gr
showpage
