%!PS-Adobe-2.0 EPSF-2.0
%%Title: user.dia
%%Creator: Dia v0.90
%%CreationDate: Tue Sep 17 13:22:33 2002
%%For: a user
%%Magnification: 1.0000
%%Orientation: Portrait
%%BoundingBox: 0 0 635 474
%%Pages: 1
%%EndComments
%%BeginProlog
/cp {closepath} bind def
/c {curveto} bind def
/f {fill} bind def
/a {arc} bind def
/ef {eofill} bind def
/ex {exch} bind def
/gr {grestore} bind def
/gs {gsave} bind def
/sa {save} bind def
/rs {restore} bind def
/l {lineto} bind def
/m {moveto} bind def
/rm {rmoveto} bind def
/n {newpath} bind def
/s {stroke} bind def
/sh {show} bind def
/slc {setlinecap} bind def
/slj {setlinejoin} bind def
/slw {setlinewidth} bind def
/srgb {setrgbcolor} bind def
/rot {rotate} bind def
/sc {scale} bind def
/sd {setdash} bind def
/ff {findfont} bind def
/sf {setfont} bind def
/scf {scalefont} bind def
/sw {stringwidth pop} bind def
/tr {translate} bind def

/ellipsedict 8 dict def
ellipsedict /mtrx matrix put
/ellipse
{ ellipsedict begin
   /endangle exch def
   /startangle exch def
   /yrad exch def
   /xrad exch def
   /y exch def
   /x exch def   /savematrix mtrx currentmatrix def
   x y tr xrad yrad sc
   0 0 1 startangle endangle arc
   savematrix setmatrix
   end
} def

/mergeprocs {
dup length
3 -1 roll
dup
length
dup
5 1 roll
3 -1 roll
add
array cvx
dup
3 -1 roll
0 exch
putinterval
dup
4 2 roll
putinterval
} bind def
%%EndProlog

%%BeginSetup
%%EndSetup
24.347513 -24.347513 scale
-1.989820 -25.734500 translate

1.000000 1.000000 1.000000 srgb
n 18.294910 14.575000 8.894910 7.075000 0 360 ellipse f
0.100000 slw
[] 0 sd
[] 0 sd
0.000000 0.000000 0.000000 srgb
n 18.294910 14.575000 8.894910 7.075000 0 360 ellipse cp s
0.100000 slw
[] 0 sd
1.000000 1.000000 1.000000 srgb
n 3.300000 14.000000 0.300000 0.300000 0 360 ellipse f
0.000000 0.000000 0.000000 srgb
n 3.300000 14.000000 0.300000 0.300000 0 360 ellipse cp s
n 2.100000 14.600000 m 4.500000 14.600000 l s
n 3.300000 14.300000 m 3.300000 15.800000 l s
n 3.300000 15.800000 m 2.100000 17.100000 l s
n 3.300000 15.800000 m 4.500000 17.100000 l s
 [ /xi /xi /xi /xi /xi /xi /xi /xi /xi /xi /xi /xi /xi /xi /xi /xi
 /xi /xi /xi /xi /xi /xi /xi /xi /xi /xi /xi /xi /xi /xi /xi /xi
 /A /c /t /o /r /e /q /u /xi /xi /s /p /n /j /y /braceleft
 /braceright /m /a /g /plus /colon /space /i /d /b /l /slash /w /M /I /E
 /ampersand /f /U /v /parenleft /X /L /parenright /h /k /quotedbl /comma /period /xi /xi /xi
 /xi /xi /xi /xi /xi /xi /xi /xi /xi /xi /xi /xi /xi /xi /xi /xi
 /xi /xi /xi /xi /xi /xi /xi /xi /xi /xi /xi /xi /xi /xi /xi /xi
 /xi /xi /xi /xi /xi /xi /xi /xi /xi /xi /xi /xi /xi /xi /xi /xi
 /xi /xi /xi /xi /xi /xi /xi /xi /xi /xi /xi /xi /xi /xi /xi /xi
 /xi /xi /xi /xi /xi /xi /xi /xi /xi /xi /xi /xi /xi /xi /xi /xi
 /xi /xi /xi /xi /xi /xi /xi /xi /xi /xi /xi /xi /xi /xi /xi /xi
 /xi /xi /xi /xi /xi /xi /xi /xi /xi /xi /xi /xi /xi /xi /xi /xi
 /xi /xi /xi /xi /xi /xi /xi /xi /xi /xi /xi /xi /xi /xi /xi /xi
 /xi /xi /xi /xi /xi /xi /xi /xi /xi /xi /xi /xi /xi /xi /xi /xi
 /xi /xi /xi /xi /xi /xi /xi /xi /xi /xi /xi /xi /xi /xi /xi /xi
 /xi /xi /xi /xi /xi /xi /xi /xi /xi /xi /xi /xi /xi /xi /xi /xi
] /e0 exch def
/Helvetica_e0 undefinefont
/Helvetica_e0
  /Helvetica findfont
  dup length dict begin
  {1 index /FID ne {def} {pop pop} ifelse} forall
  /Encoding e0 def
  currentdict end
definefont pop
/Helvetica_e0 ff 0.800000 scf sf
( !"#$) sw
2 div 3.300000 ex sub 18.340000 m ( !"#$)
 gs 1 -1 sc sh gr
0.100000 slw
0 slc
[] 0 sd
n 11.289800 16.000000 m 4.939820 15.434500 l s
0 slj
n 10.470778 16.178051 m 11.289800 16.000000 l 10.515130 15.680022 l f
/Helvetica_e0 ff 0.800000 scf sf
($%&'%*") sw
2 div 6.889820 ex sub 16.692300 m ($%&'%*")
 gs 1 -1 sc sh gr
0.100000 slw
0 slc
[] 0 sd
n 4.989820 14.684500 m 11.289800 14.200000 l s
0 slj
n 5.768295 14.373893 m 4.989820 14.684500 l 5.806634 14.872421 l f
/Helvetica_e0 ff 0.800000 scf sf
($%*+#,*%) sw
2 div 7.034730 ex sub 13.817300 m ($%*+#,*%)
 gs 1 -1 sc sh gr
0.100000 slw
[] 0 sd
1.000000 1.000000 1.000000 srgb
n 11.289800 14.200000 m 11.289800 16.000000 l 13.961800 16.000000 l 13.961800 14.200000 l f
0.000000 0.000000 0.000000 srgb
n 11.289800 14.200000 m 11.289800 16.000000 l 13.961800 16.000000 l 13.961800 14.200000 l cp s
/Helvetica_e0 ff 0.800000 scf sf
(-%$$.) sw
2 div 12.625800 ex sub 15.340000 m (-%$$.)
 gs 1 -1 sc sh gr
0.050000 slw
n 11.789800 15.500000 m 13.461800 15.500000 l s
0.100000 slw
[] 0 sd
[0.400000] 0 sd
0 slc
n 8.123020 11.150000 m 7.139820 13.500000 l s
0.100000 slw
[] 0 sd
0 slj
0 slc
n 7.217963 12.665498 m 7.139820 13.500000 l 7.679220 12.858480 l s
7.915020 11.650000 m /Courier_e0 undefinefont
/Courier_e0
  /Courier findfont
  dup length dict begin
  {1 index /FID ne {def} {pop pop} ifelse} forall
  /Encoding e0 def
  currentdict end
definefont pop
/Courier_e0 ff 0.800000 scf sf
(/0)
 gs 1 -1 sc sh gr
0.100000 slw
[] 0 sd
1.000000 1.000000 1.000000 srgb
n 2.089820 6.350000 m 2.089820 7.750000 l 14.156220 7.750000 l 14.156220 6.350000 l f
0.000000 0.000000 0.000000 srgb
n 2.089820 6.350000 m 2.089820 7.750000 l 14.156220 7.750000 l 14.156220 6.350000 l cp s
/Helvetica-Bold_e0 undefinefont
/Helvetica-Bold_e0
  /Helvetica-Bold findfont
  dup length dict begin
  {1 index /FID ne {def} {pop pop} ifelse} forall
  /Encoding e0 def
  currentdict end
definefont pop
/Helvetica-Bold_e0 ff 1.000000 scf sf
(1%**23%) sw
2 div 8.123020 ex sub 7.350000 m (1%**23%)
 gs 1 -1 sc sh gr
1.000000 1.000000 1.000000 srgb
n 2.089820 7.750000 m 2.089820 11.150000 l 14.156220 11.150000 l 14.156220 7.750000 l f
0.000000 0.000000 0.000000 srgb
n 2.089820 7.750000 m 2.089820 11.150000 l 14.156220 11.150000 l 14.156220 7.750000 l cp s
2.239820 8.444690 m /Courier_e0 ff 0.800000 scf sf
(4!$%2"#$5678)
 gs 1 -1 sc sh gr
2.239820 9.244690 m /Courier_e0 ff 0.800000 scf sf
(4!2+297:7"7%*)
 gs 1 -1 sc sh gr
2.239820 10.044690 m /Courier_e0 ff 0.800000 scf sf
(41*36".+%56$;<)
 gs 1 -1 sc sh gr
2.239820 10.844690 m /Courier_e0 ff 0.800000 scf sf
(4!#,"%,"56=>=?6@69."%*)
 gs 1 -1 sc sh gr
0.100000 slw
[] 0 sd
1.000000 1.000000 1.000000 srgb
n 21.544800 15.435000 m 21.544800 17.235000 l 25.396000 17.235000 l 25.396000 15.435000 l f
0.000000 0.000000 0.000000 srgb
n 21.544800 15.435000 m 21.544800 17.235000 l 25.396000 17.235000 l 25.396000 15.435000 l cp s
/Helvetica_e0 ff 0.800000 scf sf
(288$689) sw
2 div 23.470400 ex sub 16.575000 m (288$689)
 gs 1 -1 sc sh gr
0.050000 slw
n 22.044800 16.735000 m 24.896000 16.735000 l s
0.100000 slw
[] 0 sd
1.000000 1.000000 1.000000 srgb
n 18.694800 9.135000 m 18.694800 10.935000 l 24.130000 10.935000 l 24.130000 9.135000 l f
0.000000 0.000000 0.000000 srgb
n 18.694800 9.135000 m 18.694800 10.935000 l 24.130000 10.935000 l 24.130000 9.135000 l cp s
/Helvetica_e0 ff 0.800000 scf sf
(+$%A%$%,!%*) sw
2 div 21.412400 ex sub 10.275000 m (+$%A%$%,!%*)
 gs 1 -1 sc sh gr
0.050000 slw
n 19.194800 10.435000 m 23.630000 10.435000 l s
0.100000 slw
[] 0 sd
1.000000 1.000000 1.000000 srgb
n 15.144800 18.435000 m 15.144800 20.235000 l 19.471200 20.235000 l 19.471200 18.435000 l f
0.000000 0.000000 0.000000 srgb
n 15.144800 18.435000 m 15.144800 20.235000 l 19.471200 20.235000 l 19.471200 18.435000 l cp s
/Helvetica_e0 ff 0.800000 scf sf
(127:6A7:"%$) sw
2 div 17.308000 ex sub 19.575000 m (127:6A7:"%$)
 gs 1 -1 sc sh gr
0.050000 slw
n 15.644800 19.735000 m 18.971200 19.735000 l s
0.100000 slw
0 slc
[] 0 sd
n 18.694800 10.035000 m 13.961800 15.100000 l s
0 slj
n 18.331258 10.790207 m 18.694800 10.035000 l 17.965934 10.448829 l f
/Helvetica_e0 ff 0.800000 scf sf
($%28) sw
2 div 15.039820 ex sub 13.000000 m ($%28)
 gs 1 -1 sc sh gr
0.100000 slw
0 slc
[] 0 sd
n 17.308000 18.435000 m 13.961800 15.100000 l s
0 slj
n 16.564887 18.047336 m 17.308000 18.435000 l 16.917847 17.693191 l f
/Helvetica_e0 ff 0.800000 scf sf
(<$7"%) sw
2 div 14.839820 ex sub 17.400000 m (<$7"%)
 gs 1 -1 sc sh gr
0.100000 slw
[] 0 sd
[] 0 sd
0 slc
n 23.470400 14.615873 2.581343 2.581343 138.242331 41.757669 ellipse s
0.100000 slw
[] 0 sd
[] 0 sd
0 slc
n 21.544800 16.335000 m 21.039820 16.000000 l s
0.100000 slw
[] 0 sd
[0.400000] 0 sd
0 slc
n 8.123020 11.150000 m 21.439820 13.150000 l s
0.100000 slw
[] 0 sd
0 slj
0 slc
n 20.611562 13.278411 m 21.439820 13.150000 l 20.685823 12.783956 l s
15.215010 11.875050 m /Courier_e0 ff 0.800000 scf sf
(/0)
 gs 1 -1 sc sh gr
0.100000 slw
0 slc
[] 0 sd
n 21.544800 17.235000 m 13.961800 15.100000 l s
0 slj
n 20.706986 17.258833 m 21.544800 17.235000 l 20.842493 16.777545 l f
/Helvetica_e0 ff 0.800000 scf sf
(%,"%$) sw
2 div 19.137250 ex sub 15.925000 m (%,"%$)
 gs 1 -1 sc sh gr
0.100000 slw
[] 0 sd
1.000000 1.000000 1.000000 srgb
n 2.039820 20.784500 m 27.402220 20.784500 l 28.002220 21.384500 l 28.002220 25.684500 l 2.039820 25.684500 l f
0.000000 0.000000 0.000000 srgb
n 2.039820 20.784500 m 27.402220 20.784500 l 28.002220 21.384500 l 28.002220 25.684500 l 2.039820 25.684500 l cp s
0.050000 slw
n 27.402220 20.784500 m 27.402220 21.384500 l 28.002220 21.384500 l s
2.389820 22.029190 m /Courier_e0 ff 0.800000 scf sf
(B*%$6*%%*6+2**7C%682"26#9-%!"*)
 gs 1 -1 sc sh gr
2.389820 22.829190 m (D%**%,"72::.6E=F61%**23%*G)
 gs 1 -1 sc sh gr
2.389820 23.629190 m ("$2C%:6"$#'3H6,21%86!H2,,%:*6D:7,I*G)
 gs 1 -1 sc sh gr
2.389820 24.429190 m (9%"<%%,6J+:2!%*JK6<H7!H62$%62++:7!2"7#,*)
 gs 1 -1 sc sh gr
2.389820 25.229190 m (:7I%6A#:8%$*K682"2692*%*K6+$7,"%$*K6<2::%"*6%"!L)
 gs 1 -1 sc sh gr
showpage
